﻿  {
    "dependencies": {
      "CreditExchange.StatusManagement.Abstractions": "1.0.0-*",
      "LendFoundry.Configuration.Client": "1.0.7-*",
      "LendFoundry.EventHub.Abstractions": "1.0.1-*",
      "LendFoundry.EventHub.Client": "1.0.3-*",
      "LendFoundry.Foundation.Logging": "1.0.9-*",
      "LendFoundry.Foundation.Persistence": "1.0.1-*",
      "LendFoundry.Foundation.Persistence.Mongo": "1.0.1-*",
      "LendFoundry.Foundation.Services": "1.0.11-*",
      "LendFoundry.Security.Tokens": "1.0.6-*",
      "LendFoundry.Tenant.Abstractions": "1.0.0-*",
      "LendFoundry.Tenant.Client": "1.0.9-*",
      "Microsoft.AspNet.FileProviders.Abstractions": "1.0.0-beta8",
      "Microsoft.AspNet.Hosting.Abstractions": "1.0.0-beta8",
      "Microsoft.AspNet.Http": "1.0.0-beta8",
      "Microsoft.AspNet.Http.Abstractions": "1.0.0-beta8",
      "Microsoft.AspNet.Http.Features": "1.0.0-beta8",
      "Microsoft.AspNet.WebUtilities": "1.0.0-beta8",
      "Microsoft.Framework.DependencyInjection.Abstractions": "1.0.0-beta8",
      "Microsoft.Net.Http.Headers": "1.0.0-beta8"      
    },
  "frameworks": {
    "dnx451": {}
  },
  "version": "1.0.0"
}
