﻿{
  "version": "1.0.0-*",

  "dependencies": {
    "CapitalAlliance.Applications.Filters.Abstractions": "",
    "LendFoundry.Foundation.Logging": "1.0.9-*",
    "LendFoundry.Foundation.Persistence": "1.0.1-*",
    "LendFoundry.Foundation.Persistence.Mongo": "1.0.1-*",
    "LendFoundry.Foundation.Services": "1.0.11-*",
    "LendFoundry.Security.Tokens": "1.0.6-*",
    "Microsoft.AspNet.FileProviders.Abstractions": "1.0.0-beta8",
    "Microsoft.AspNet.Hosting.Abstractions": "1.0.0-beta8",
    "Microsoft.AspNet.Http": "1.0.0-beta8",
    "Microsoft.AspNet.Http.Abstractions": "1.0.0-beta8",
    "Microsoft.AspNet.WebUtilities": "1.0.0-beta8",
    "Microsoft.Net.Http.Headers": "1.0.0-beta8",
    "MongoDB.Driver": "2.2.0",
    "Microsoft.Framework.DependencyInjection.Abstractions": "1.0.0-beta8"
  },

  "frameworks": {
    "dnx451": {}
  }
}
