﻿{
  "version": "1.0.0",

  "dependencies": {
    "CapitalAlliance.Applications.Filters": "",
    "CapitalAlliance.Applications.Filters.Abstractions": "",
    "CapitalAlliance.Applications.Filters.Persistence": "",
    "CreditExchange.StatusManagement.Abstractions": "1.0.0-*",
    "CreditExchange.StatusManagement.Client": "1.0.0-*",
    "LendFoundry.Clients.DecisionEngine": "1.0.0-*",
    "LendFoundry.Configuration.Client": "1.0.7-*",
    "LendFoundry.EventHub.Abstractions": "1.0.1-*",
    "LendFoundry.EventHub.Client": "1.0.3-*",
    "LendFoundry.Foundation.Date": "1.0.3-*",
    "LendFoundry.Foundation.Logging": "1.0.9-*",
    "LendFoundry.Foundation.Persistence": "1.0.1-*",
    "LendFoundry.Foundation.Persistence.Mongo": "1.0.1-*",
    "LendFoundry.Foundation.Services": "1.0.11-*",
    "LendFoundry.Notifications.Abstractions": "1.0.1-*",
    "LendFoundry.Security.Identity.Abstractions": "1.0.0-11056",
    "LendFoundry.Security.Identity.Client": "1.0.0-*",
    "LendFoundry.Security.Tokens": "1.0.6-*",
    "Microsoft.AspNet.Cors": "6.0.0-beta8",
    "Microsoft.AspNet.FileProviders.Abstractions": "1.0.0-beta8",
    "Microsoft.AspNet.Hosting": "1.0.0-beta8",
    "Microsoft.AspNet.Hosting.Abstractions": "1.0.0-beta8",
    "Microsoft.AspNet.Http": "1.0.0-beta8",
    "Microsoft.AspNet.Http.Abstractions": "1.0.0-beta8",
    "Microsoft.AspNet.Mvc": "6.0.0-beta8",
    "Microsoft.AspNet.Mvc.Core": "6.0.0-beta8",
    "Microsoft.AspNet.Server.Kestrel": "1.0.0-beta8",
    "Microsoft.AspNet.WebUtilities": "1.0.0-beta8",
    "Microsoft.Framework.DependencyInjection.Abstractions": "1.0.0-beta8",
    "Microsoft.Net.Http.Headers": "1.0.0-beta8",   
    "LendFoundry.Business.Applicant.Client": "1.0.0-*",    
    "LendFoundry.Business.Application.Client": "1.0.0-*"
  },
  "commands": {
    "kestrel": "Microsoft.AspNet.Hosting --server Microsoft.AspNet.Server.Kestrel --server.urls http://*:5004"
  },
  "frameworks": {
    "dnx451": {}
  }
}
